[ {
  "uid" : "496b491e524985ec",
  "name" : "Select Price Range",
  "time" : {
    "start" : 1601984018117,
    "stop" : 1601984044294,
    "duration" : 26177
  },
  "status" : "passed",
  "severity" : "normal"
}, {
  "uid" : "6b6f598d6e9c8971",
  "name" : "Sorting low high",
  "time" : {
    "start" : 1601984044294,
    "stop" : 1601984053773,
    "duration" : 9479
  },
  "status" : "passed",
  "severity" : "normal"
}, {
  "uid" : "885500011551ab48",
  "name" : "Select BMW Model",
  "time" : {
    "start" : 1601983999746,
    "stop" : 1601984018117,
    "duration" : 18371
  },
  "status" : "passed",
  "severity" : "normal"
}, {
  "uid" : "aa3f945b45deb20d",
  "name" : "Sorting high low",
  "time" : {
    "start" : 1601984053773,
    "stop" : 1601984065089,
    "duration" : 11316
  },
  "status" : "passed",
  "severity" : "normal"
}, {
  "uid" : "1f54b10d76df3db9",
  "name" : "Leaseplan Demo TestCase",
  "time" : {
    "start" : 1601983982731,
    "stop" : 1601983999746,
    "duration" : 17015
  },
  "status" : "passed",
  "severity" : "normal"
} ]