{
  "uid" : "ab17fc5a4eb3bca4b216b548c7f9fcbc",
  "name" : "timeline",
  "children" : [ {
    "name" : "0-0",
    "children" : [ {
      "name" : "Leaseplan Demo TestCase",
      "uid" : "d4f4396196991b46",
      "parentUid" : "516fe00eea05ad99e936fa729b55eff4",
      "status" : "passed",
      "time" : {
        "start" : 1601731249456,
        "stop" : 1601731268995,
        "duration" : 19539
      },
      "flaky" : false,
      "newFailed" : false,
      "parameters" : [ "chrome-85.0.4183.121" ]
    }, {
      "name" : "Sorting high low",
      "uid" : "18c3a6ba0e62ee6c",
      "parentUid" : "516fe00eea05ad99e936fa729b55eff4",
      "status" : "passed",
      "time" : {
        "start" : 1601756578380,
        "stop" : 1601756588948,
        "duration" : 10568
      },
      "flaky" : false,
      "newFailed" : false,
      "parameters" : [ "chrome-85.0.4183.121" ]
    }, {
      "name" : "Sorting low high",
      "uid" : "2df9a1245185da88",
      "parentUid" : "516fe00eea05ad99e936fa729b55eff4",
      "status" : "passed",
      "time" : {
        "start" : 1601982855196,
        "stop" : 1601982864212,
        "duration" : 9016
      },
      "flaky" : false,
      "newFailed" : false,
      "parameters" : [ "chrome-85.0.4183.121" ]
    }, {
      "name" : "Select Price Range",
      "uid" : "496b491e524985ec",
      "parentUid" : "516fe00eea05ad99e936fa729b55eff4",
      "status" : "passed",
      "time" : {
        "start" : 1601984018117,
        "stop" : 1601984044294,
        "duration" : 26177
      },
      "flaky" : false,
      "newFailed" : false,
      "parameters" : [ "chrome-85.0.4183.121" ]
    }, {
      "name" : "Sorting high low",
      "uid" : "28eced27911eff90",
      "parentUid" : "516fe00eea05ad99e936fa729b55eff4",
      "status" : "passed",
      "time" : {
        "start" : 1601982864212,
        "stop" : 1601982875135,
        "duration" : 10923
      },
      "flaky" : false,
      "newFailed" : false,
      "parameters" : [ "chrome-85.0.4183.121" ]
    }, {
      "name" : "Select Price Range",
      "uid" : "9dd1cd653cf5c857",
      "parentUid" : "516fe00eea05ad99e936fa729b55eff4",
      "status" : "passed",
      "time" : {
        "start" : 1601731285992,
        "stop" : 1601731310871,
        "duration" : 24879
      },
      "flaky" : false,
      "newFailed" : false,
      "parameters" : [ "chrome-85.0.4183.121" ]
    }, {
      "name" : "Sorting high low",
      "uid" : "1766262e9f617be9",
      "parentUid" : "516fe00eea05ad99e936fa729b55eff4",
      "status" : "passed",
      "time" : {
        "start" : 1601983848678,
        "stop" : 1601983859369,
        "duration" : 10691
      },
      "flaky" : false,
      "newFailed" : false,
      "parameters" : [ "chrome-85.0.4183.121" ]
    }, {
      "name" : "Leaseplan Demo TestCase",
      "uid" : "326eaec7364d660c",
      "parentUid" : "516fe00eea05ad99e936fa729b55eff4",
      "status" : "passed",
      "time" : {
        "start" : 1601983776669,
        "stop" : 1601983795080,
        "duration" : 18411
      },
      "flaky" : false,
      "newFailed" : false,
      "parameters" : [ "chrome-85.0.4183.121" ]
    }, {
      "name" : "Select Price Range",
      "uid" : "82d99244638a5f38",
      "parentUid" : "516fe00eea05ad99e936fa729b55eff4",
      "status" : "passed",
      "time" : {
        "start" : 1601982829582,
        "stop" : 1601982855196,
        "duration" : 25614
      },
      "flaky" : false,
      "newFailed" : false,
      "parameters" : [ "chrome-85.0.4183.121" ]
    }, {
      "name" : "Leaseplan Demo TestCase",
      "uid" : "704f178054bb3b78",
      "parentUid" : "516fe00eea05ad99e936fa729b55eff4",
      "status" : "passed",
      "time" : {
        "start" : 1601982790719,
        "stop" : 1601982811434,
        "duration" : 20715
      },
      "flaky" : false,
      "newFailed" : false,
      "parameters" : [ "chrome-85.0.4183.121" ]
    }, {
      "name" : "Select BMW Model",
      "uid" : "2eca44883e8ca8b6",
      "parentUid" : "516fe00eea05ad99e936fa729b55eff4",
      "status" : "passed",
      "time" : {
        "start" : 1601983795080,
        "stop" : 1601983813596,
        "duration" : 18516
      },
      "flaky" : false,
      "newFailed" : false,
      "parameters" : [ "chrome-85.0.4183.121" ]
    }, {
      "name" : "Leaseplan Demo TestCase",
      "uid" : "1f54b10d76df3db9",
      "parentUid" : "516fe00eea05ad99e936fa729b55eff4",
      "status" : "passed",
      "time" : {
        "start" : 1601983982731,
        "stop" : 1601983999746,
        "duration" : 17015
      },
      "flaky" : false,
      "newFailed" : false,
      "parameters" : [ "chrome-85.0.4183.121" ]
    }, {
      "name" : "Select BMW Model",
      "uid" : "7aab5cb4803fd519",
      "parentUid" : "516fe00eea05ad99e936fa729b55eff4",
      "status" : "passed",
      "time" : {
        "start" : 1601756527702,
        "stop" : 1601756544771,
        "duration" : 17069
      },
      "flaky" : false,
      "newFailed" : false,
      "parameters" : [ "chrome-85.0.4183.121" ]
    }, {
      "name" : "Select Price Range",
      "uid" : "384f953aae6d8458",
      "parentUid" : "516fe00eea05ad99e936fa729b55eff4",
      "status" : "passed",
      "time" : {
        "start" : 1601814539183,
        "stop" : 1601814564589,
        "duration" : 25406
      },
      "flaky" : false,
      "newFailed" : false,
      "parameters" : [ "chrome-85.0.4183.121" ]
    }, {
      "name" : "Leaseplan Demo TestCase",
      "uid" : "6c97da70f38ec6ec",
      "parentUid" : "516fe00eea05ad99e936fa729b55eff4",
      "status" : "failed",
      "time" : {
        "start" : 1601756500643,
        "stop" : 1601756527702,
        "duration" : 27059
      },
      "flaky" : false,
      "newFailed" : false,
      "parameters" : [ "chrome-85.0.4183.121" ]
    }, {
      "name" : "Select BMW Model",
      "uid" : "e050f4b53f4556d",
      "parentUid" : "516fe00eea05ad99e936fa729b55eff4",
      "status" : "passed",
      "time" : {
        "start" : 1601746729498,
        "stop" : 1601746746577,
        "duration" : 17079
      },
      "flaky" : false,
      "newFailed" : false,
      "parameters" : [ "chrome-85.0.4183.121" ]
    }, {
      "name" : "Sorting low high",
      "uid" : "b7edea68f732e39c",
      "parentUid" : "516fe00eea05ad99e936fa729b55eff4",
      "status" : "passed",
      "time" : {
        "start" : 1601814564589,
        "stop" : 1601814573441,
        "duration" : 8852
      },
      "flaky" : false,
      "newFailed" : false,
      "parameters" : [ "chrome-85.0.4183.121" ]
    }, {
      "name" : "Sorting low high",
      "uid" : "98dfba4129625b4d",
      "parentUid" : "516fe00eea05ad99e936fa729b55eff4",
      "status" : "passed",
      "time" : {
        "start" : 1601983839546,
        "stop" : 1601983848678,
        "duration" : 9132
      },
      "flaky" : false,
      "newFailed" : false,
      "parameters" : [ "chrome-85.0.4183.121" ]
    }, {
      "name" : "Select Price Range",
      "uid" : "81964eb9c9a4a3b4",
      "parentUid" : "516fe00eea05ad99e936fa729b55eff4",
      "status" : "passed",
      "time" : {
        "start" : 1601756544771,
        "stop" : 1601756569736,
        "duration" : 24965
      },
      "flaky" : false,
      "newFailed" : false,
      "parameters" : [ "chrome-85.0.4183.121" ]
    }, {
      "name" : "Select BMW Model",
      "uid" : "272618ac5935d1c4",
      "parentUid" : "516fe00eea05ad99e936fa729b55eff4",
      "status" : "passed",
      "time" : {
        "start" : 1601982811435,
        "stop" : 1601982829581,
        "duration" : 18146
      },
      "flaky" : false,
      "newFailed" : false,
      "parameters" : [ "chrome-85.0.4183.121" ]
    }, {
      "name" : "Sorting high low",
      "uid" : "4caf9689266f28a4",
      "parentUid" : "516fe00eea05ad99e936fa729b55eff4",
      "status" : "passed",
      "time" : {
        "start" : 1601983078248,
        "stop" : 1601983089027,
        "duration" : 10779
      },
      "flaky" : false,
      "newFailed" : false,
      "parameters" : [ "chrome-85.0.4183.121" ]
    }, {
      "name" : "Sorting low high",
      "uid" : "1619f3a505193012",
      "parentUid" : "516fe00eea05ad99e936fa729b55eff4",
      "status" : "passed",
      "time" : {
        "start" : 1601983069063,
        "stop" : 1601983078248,
        "duration" : 9185
      },
      "flaky" : false,
      "newFailed" : false,
      "parameters" : [ "chrome-85.0.4183.121" ]
    }, {
      "name" : "Sorting high low",
      "uid" : "c566367213af4038",
      "parentUid" : "516fe00eea05ad99e936fa729b55eff4",
      "status" : "passed",
      "time" : {
        "start" : 1601731319478,
        "stop" : 1601731330046,
        "duration" : 10568
      },
      "flaky" : false,
      "newFailed" : false,
      "parameters" : [ "chrome-85.0.4183.121" ]
    }, {
      "name" : "Sorting low high",
      "uid" : "264d4f748a4174a",
      "parentUid" : "516fe00eea05ad99e936fa729b55eff4",
      "status" : "passed",
      "time" : {
        "start" : 1601756569736,
        "stop" : 1601756578380,
        "duration" : 8644
      },
      "flaky" : false,
      "newFailed" : false,
      "parameters" : [ "chrome-85.0.4183.121" ]
    }, {
      "name" : "Leaseplan Demo TestCase",
      "uid" : "302b71ddb04e93e1",
      "parentUid" : "516fe00eea05ad99e936fa729b55eff4",
      "status" : "passed",
      "time" : {
        "start" : 1601746712411,
        "stop" : 1601746729498,
        "duration" : 17087
      },
      "flaky" : false,
      "newFailed" : false,
      "parameters" : [ "chrome-85.0.4183.121" ]
    }, {
      "name" : "Sorting low high",
      "uid" : "aec6db0369b44d68",
      "parentUid" : "516fe00eea05ad99e936fa729b55eff4",
      "status" : "passed",
      "time" : {
        "start" : 1601731310871,
        "stop" : 1601731319478,
        "duration" : 8607
      },
      "flaky" : false,
      "newFailed" : false,
      "parameters" : [ "chrome-85.0.4183.121" ]
    }, {
      "name" : "Leaseplan Demo TestCase",
      "uid" : "bdb77effe546dd87",
      "parentUid" : "516fe00eea05ad99e936fa729b55eff4",
      "status" : "failed",
      "time" : {
        "start" : 1601814491564,
        "stop" : 1601814521481,
        "duration" : 29917
      },
      "flaky" : false,
      "newFailed" : false,
      "parameters" : [ "chrome-85.0.4183.121" ]
    }, {
      "name" : "Sorting high low",
      "uid" : "a12c470e1adb16f3",
      "parentUid" : "516fe00eea05ad99e936fa729b55eff4",
      "status" : "passed",
      "time" : {
        "start" : 1601814573441,
        "stop" : 1601814584345,
        "duration" : 10904
      },
      "flaky" : false,
      "newFailed" : false,
      "parameters" : [ "chrome-85.0.4183.121" ]
    }, {
      "name" : "Select Price Range",
      "uid" : "99e3253f5a52dd07",
      "parentUid" : "516fe00eea05ad99e936fa729b55eff4",
      "status" : "passed",
      "time" : {
        "start" : 1601746746577,
        "stop" : 1601746771554,
        "duration" : 24977
      },
      "flaky" : false,
      "newFailed" : false,
      "parameters" : [ "chrome-85.0.4183.121" ]
    }, {
      "name" : "Select BMW Model",
      "uid" : "885500011551ab48",
      "parentUid" : "516fe00eea05ad99e936fa729b55eff4",
      "status" : "passed",
      "time" : {
        "start" : 1601983999746,
        "stop" : 1601984018117,
        "duration" : 18371
      },
      "flaky" : false,
      "newFailed" : false,
      "parameters" : [ "chrome-85.0.4183.121" ]
    }, {
      "name" : "Select BMW Model",
      "uid" : "5e2906ef4dd33ad7",
      "parentUid" : "516fe00eea05ad99e936fa729b55eff4",
      "status" : "passed",
      "time" : {
        "start" : 1601731268995,
        "stop" : 1601731285992,
        "duration" : 16997
      },
      "flaky" : false,
      "newFailed" : false,
      "parameters" : [ "chrome-85.0.4183.121" ]
    }, {
      "name" : "Leaseplan Demo TestCase",
      "uid" : "904fd282c81e092f",
      "parentUid" : "516fe00eea05ad99e936fa729b55eff4",
      "status" : "passed",
      "time" : {
        "start" : 1601983009352,
        "stop" : 1601983026168,
        "duration" : 16816
      },
      "flaky" : false,
      "newFailed" : false,
      "parameters" : [ "chrome-85.0.4183.121" ]
    }, {
      "name" : "Sorting high low",
      "uid" : "aa3f945b45deb20d",
      "parentUid" : "516fe00eea05ad99e936fa729b55eff4",
      "status" : "passed",
      "time" : {
        "start" : 1601984053773,
        "stop" : 1601984065089,
        "duration" : 11316
      },
      "flaky" : false,
      "newFailed" : false,
      "parameters" : [ "chrome-85.0.4183.121" ]
    }, {
      "name" : "Sorting low high",
      "uid" : "b8b19d8c05704677",
      "parentUid" : "516fe00eea05ad99e936fa729b55eff4",
      "status" : "passed",
      "time" : {
        "start" : 1601746771554,
        "stop" : 1601746780192,
        "duration" : 8638
      },
      "flaky" : false,
      "newFailed" : false,
      "parameters" : [ "chrome-85.0.4183.121" ]
    }, {
      "name" : "Sorting low high",
      "uid" : "6b6f598d6e9c8971",
      "parentUid" : "516fe00eea05ad99e936fa729b55eff4",
      "status" : "passed",
      "time" : {
        "start" : 1601984044294,
        "stop" : 1601984053773,
        "duration" : 9479
      },
      "flaky" : false,
      "newFailed" : false,
      "parameters" : [ "chrome-85.0.4183.121" ]
    }, {
      "name" : "Sorting high low",
      "uid" : "7d56dd144cbed211",
      "parentUid" : "516fe00eea05ad99e936fa729b55eff4",
      "status" : "passed",
      "time" : {
        "start" : 1601746780192,
        "stop" : 1601746790777,
        "duration" : 10585
      },
      "flaky" : false,
      "newFailed" : false,
      "parameters" : [ "chrome-85.0.4183.121" ]
    }, {
      "name" : "Select Price Range",
      "uid" : "1b6ae6d5c13d4c30",
      "parentUid" : "516fe00eea05ad99e936fa729b55eff4",
      "status" : "passed",
      "time" : {
        "start" : 1601983043845,
        "stop" : 1601983069063,
        "duration" : 25218
      },
      "flaky" : false,
      "newFailed" : false,
      "parameters" : [ "chrome-85.0.4183.121" ]
    }, {
      "name" : "Select BMW Model",
      "uid" : "d3f3fe3533900265",
      "parentUid" : "516fe00eea05ad99e936fa729b55eff4",
      "status" : "passed",
      "time" : {
        "start" : 1601814521481,
        "stop" : 1601814539183,
        "duration" : 17702
      },
      "flaky" : false,
      "newFailed" : false,
      "parameters" : [ "chrome-85.0.4183.121" ]
    }, {
      "name" : "Select Price Range",
      "uid" : "479bb9109ed8d385",
      "parentUid" : "516fe00eea05ad99e936fa729b55eff4",
      "status" : "passed",
      "time" : {
        "start" : 1601983813596,
        "stop" : 1601983839546,
        "duration" : 25950
      },
      "flaky" : false,
      "newFailed" : false,
      "parameters" : [ "chrome-85.0.4183.121" ]
    }, {
      "name" : "Select BMW Model",
      "uid" : "a4d6f0f7ff468e7",
      "parentUid" : "516fe00eea05ad99e936fa729b55eff4",
      "status" : "passed",
      "time" : {
        "start" : 1601983026169,
        "stop" : 1601983043845,
        "duration" : 17676
      },
      "flaky" : false,
      "newFailed" : false,
      "parameters" : [ "chrome-85.0.4183.121" ]
    } ],
    "uid" : "516fe00eea05ad99e936fa729b55eff4"
  } ]
}